module gitlab.com/schin1/ai-assist

go 1.22.3

require (
	github.com/jackc/pgpassfile v1.0.0 // indirect
	github.com/jackc/pgservicefile v0.0.0-20240606120523-5a60cdf6a761 // indirect
	github.com/jackc/pgx/v5 v5.7.1 // indirect
	github.com/jackc/puddle/v2 v2.2.2 // indirect
	golang.org/x/crypto v0.27.0 // indirect
	golang.org/x/net v0.22.0 // indirect
	golang.org/x/sync v0.8.0 // indirect
	golang.org/x/sys v0.25.0 // indirect
	golang.org/x/text v0.18.0 // indirect
	google.golang.org/genproto/googleapis/rpc v0.0.0-20240318140521-94a12d6c2237 // indirect
	google.golang.org/grpc v1.64.0 // indirect
	google.golang.org/protobuf v1.33.0 // indirect
)
