{
  "$schema": "https://docs.renovatebot.com/renovate-schema.json",
  "extends": [
    "gitlab>gitlab-com/gl-infra/common-ci-tasks:renovate-common",
    ":semanticCommitTypeAll(chore)"
  ],
  "reviewersSampleSize": 2,
  "additionalReviewers": ["achueshev", "stanhu", "tle_gitlab", "shinya.maeda"]
}
